Info: Starting: Create block symbol file (.bsf)
Info: qsys-generate "C:\Users\ausen\Documents\Fall 2018 CODE\FPGA\LAB_8\adc_interface.qsys" --block-symbol-file --output-directory="C:\Users\ausen\Documents\Fall 2018 CODE\FPGA\LAB_8\adc_interface" --family="MAX 10" --part=10M50DAF484C7G
Progress: Loading LAB_8/adc_interface.qsys
Progress: Reading input file
Progress: Adding modular_adc_0 [altera_modular_adc 18.0]
Progress: Parameterizing module modular_adc_0
Progress: Building connections
Progress: Parameterizing connections
Progress: Validating
Progress: Done reading input file
Info: qsys-generate succeeded.
Info: Finished: Create block symbol file (.bsf)
Info: 
Info: Starting: Create HDL design files for synthesis
Info: qsys-generate "C:\Users\ausen\Documents\Fall 2018 CODE\FPGA\LAB_8\adc_interface.qsys" --synthesis=VHDL --output-directory="C:\Users\ausen\Documents\Fall 2018 CODE\FPGA\LAB_8\adc_interface\synthesis" --family="MAX 10" --part=10M50DAF484C7G
Progress: Loading LAB_8/adc_interface.qsys
Progress: Reading input file
Progress: Adding modular_adc_0 [altera_modular_adc 18.0]
Progress: Parameterizing module modular_adc_0
Progress: Building connections
Progress: Parameterizing connections
Progress: Validating
Progress: Done reading input file
Info: adc_interface: Generating adc_interface "adc_interface" for QUARTUS_SYNTH
Info: modular_adc_0: "adc_interface" instantiated altera_modular_adc "modular_adc_0"
Info: control_internal: "modular_adc_0" instantiated altera_modular_adc_control "control_internal"
Info: adc_interface: Done "adc_interface" with 3 modules, 9 files
Info: qsys-generate succeeded.
Info: Finished: Create HDL design files for synthesis
